digraph Tree {
  graph [
    charset = "UTF-8";
    label = "AST tree",
    labelloc = "t",
    labeljust = "c",
    bgcolor = "#90ee90",
    fontcolor = white,
    fontsize = 18,
    style = "filled",
    rankdir = TB,
    margin = 0.2,
    splines = spline,
    ranksep = 1.0,
    nodesep = 0.9
  ];

  node [
    colorscheme = "rdylgn11",
    style = "solid,filled",
    fontsize = 16,
    fontcolor = 6,
    fontname = "Migu 1M",
    color = 7,
    fillcolor = 11,
    shape = record;
  ];

  edge [
    style = solid,
    fontsize = 14,
    fontcolor = black,
    fontname = "Migu 1M",
    color = blue,
  ];